[
    {
        "id": "db28c60b24f0347d",
        "type": "tab",
        "label": "Flow 1",
        "disabled": false,
        "info": "",
        "env": []
    },
    {
        "id": "df04889fc1a7f5bf",
        "type": "tab",
        "label": "Flow 2",
        "disabled": false,
        "info": "",
        "env": []
    },
    {
        "id": "7494b7fd6eed6068",
        "type": "tab",
        "label": "Flow 3",
        "disabled": false,
        "info": "",
        "env": []
    },
    {
        "id": "8f8a9b1e08e98a5e",
        "type": "tab",
        "label": "Dashboard - Inicio",
        "disabled": false,
        "info": "",
        "env": []
    },
    {
        "id": "9c9e73a547d7c5a6",
        "type": "tab",
        "label": "Dashboar - User",
        "disabled": false,
        "info": "",
        "env": []
    },
    {
        "id": "a934e03d0a29aea8",
        "type": "tab",
        "label": "Dashboard - Sensor Device",
        "disabled": false,
        "info": "",
        "env": []
    },
    {
        "id": "6ad85c2db8dc0563",
        "type": "tab",
        "label": "Curso",
        "disabled": false,
        "info": "",
        "env": []
    },
    {
        "id": "ca71b8140abe6821",
        "type": "MySQLdatabase",
        "z": "db28c60b24f0347d",
        "name": "DB_SenseUp",
        "host": "mysql_db",
        "port": "3306",
        "db": "senseup",
        "tz": "+03:00",
        "charset": "UTF8"
    },
    {
        "id": "dcf9beecde7cb823",
        "type": "ui_base",
        "theme": {
            "name": "theme-dark",
            "lightTheme": {
                "default": "#0094CE",
                "baseColor": "#0094CE",
                "baseFont": "-apple-system,BlinkMacSystemFont,Segoe UI,Roboto,Oxygen-Sans,Ubuntu,Cantarell,Helvetica Neue,sans-serif",
                "edited": false
            },
            "darkTheme": {
                "default": "#097479",
                "baseColor": "#135c60",
                "baseFont": "-apple-system,BlinkMacSystemFont,Segoe UI,Roboto,Oxygen-Sans,Ubuntu,Cantarell,Helvetica Neue,sans-serif",
                "edited": true,
                "reset": false
            },
            "customTheme": {
                "name": "Untitled Theme 1",
                "default": "#4B7930",
                "baseColor": "#4B7930",
                "baseFont": "-apple-system,BlinkMacSystemFont,Segoe UI,Roboto,Oxygen-Sans,Ubuntu,Cantarell,Helvetica Neue,sans-serif"
            },
            "themeState": {
                "base-color": {
                    "default": "#097479",
                    "value": "#097479",
                    "edited": false
                },
                "page-titlebar-backgroundColor": {
                    "value": "#135c60",
                    "edited": false
                },
                "page-backgroundColor": {
                    "value": "#111111",
                    "edited": false
                },
                "page-sidebar-backgroundColor": {
                    "value": "#333333",
                    "edited": false
                },
                "group-textColor": {
                    "value": "#2099a0",
                    "edited": false
                },
                "group-borderColor": {
                    "value": "#555555",
                    "edited": false
                },
                "group-backgroundColor": {
                    "value": "#333333",
                    "edited": false
                },
                "widget-textColor": {
                    "value": "#eeeeee",
                    "edited": false
                },
                "widget-backgroundColor": {
                    "value": "#135c60",
                    "edited": false
                },
                "widget-borderColor": {
                    "value": "#333333",
                    "edited": false
                },
                "base-font": {
                    "value": "-apple-system,BlinkMacSystemFont,Segoe UI,Roboto,Oxygen-Sans,Ubuntu,Cantarell,Helvetica Neue,sans-serif"
                }
            },
            "angularTheme": {
                "primary": "light-green",
                "accents": "blue",
                "warn": "red",
                "background": "grey",
                "palette": "dark"
            }
        },
        "site": {
            "name": "Node-RED Dashboard",
            "hideToolbar": "false",
            "allowSwipe": "menu",
            "lockMenu": "true",
            "allowTempTheme": "none",
            "dateFormat": "DD/MM/YYYY",
            "sizes": {
                "sx": 48,
                "sy": 48,
                "gx": 6,
                "gy": 6,
                "cx": 6,
                "cy": 6,
                "px": 0,
                "py": 0
            }
        }
    },
    {
        "id": "bd9e1041f3791e2f",
        "type": "ui_tab",
        "name": "Inicio",
        "icon": "dashboard",
        "order": 1,
        "disabled": false,
        "hidden": false
    },
    {
        "id": "d5228022aca24f5a",
        "type": "ui_group",
        "name": "User",
        "tab": "bd9e1041f3791e2f",
        "order": 1,
        "disp": true,
        "width": "6",
        "collapse": false,
        "className": ""
    },
    {
        "id": "b851d7729e6b977e",
        "type": "ui_group",
        "name": "Sensor Device",
        "tab": "bd9e1041f3791e2f",
        "order": 2,
        "disp": true,
        "width": "6",
        "collapse": false,
        "className": ""
    },
    {
        "id": "93c89412c9e5155d",
        "type": "ui_group",
        "name": "Data Stream",
        "tab": "bd9e1041f3791e2f",
        "order": 3,
        "disp": true,
        "width": "6",
        "collapse": false,
        "className": ""
    },
    {
        "id": "bc38ae6d6de7f436",
        "type": "ui_group",
        "name": "Sensor Data",
        "tab": "bd9e1041f3791e2f",
        "order": 4,
        "disp": true,
        "width": "6",
        "collapse": false,
        "className": ""
    },
    {
        "id": "10b6558722b71c05",
        "type": "ui_group",
        "name": "Measurement Unit",
        "tab": "bd9e1041f3791e2f",
        "order": 5,
        "disp": true,
        "width": "6",
        "collapse": false,
        "className": ""
    },
    {
        "id": "f166d5bbf1ca69bd",
        "type": "ui_tab",
        "name": "user",
        "icon": "dashboard",
        "order": 2,
        "disabled": false,
        "hidden": false
    },
    {
        "id": "a7dedd3af27e1827",
        "type": "ui_group",
        "name": "User - Create",
        "tab": "f166d5bbf1ca69bd",
        "order": 1,
        "disp": true,
        "width": "30",
        "collapse": true,
        "className": ""
    },
    {
        "id": "115cd9af931cc2ab",
        "type": "ui_group",
        "name": "User - List All",
        "tab": "f166d5bbf1ca69bd",
        "order": 2,
        "disp": true,
        "width": "30",
        "collapse": true,
        "className": ""
    },
    {
        "id": "738cb4fb1c6f7df4",
        "type": "ui_spacer",
        "z": "9c9e73a547d7c5a6",
        "name": "spacer",
        "group": "78d0acf3c6f44f85",
        "order": 1,
        "width": 1,
        "height": 1
    },
    {
        "id": "42d94485dc4e736a",
        "type": "ui_tab",
        "name": "Curso",
        "icon": "dashboard",
        "order": 3,
        "disabled": false,
        "hidden": false
    },
    {
        "id": "e69378ba52b278df",
        "type": "ui_group",
        "name": "Cursos",
        "tab": "42d94485dc4e736a",
        "order": 1,
        "disp": true,
        "width": "6",
        "collapse": false,
        "className": ""
    },
    {
        "id": "9b4d277b8d331cfd",
        "type": "ui_group",
        "name": "bla",
        "tab": "f166d5bbf1ca69bd",
        "order": 3,
        "disp": true,
        "width": "6",
        "collapse": true,
        "className": ""
    },
    {
        "id": "9475ea396ff0883e",
        "type": "MySQLdatabase",
        "name": "DB_SenseUp",
        "host": "172.17.0.1",
        "port": "3306",
        "db": "senseup",
        "tz": "+03:00",
        "charset": "UTF8"
    },
    {
        "id": "9c085f2fd56babee",
        "type": "mysql",
        "z": "db28c60b24f0347d",
        "mydb": "ca71b8140abe6821",
        "name": "mysql:test",
        "x": 580,
        "y": 300,
        "wires": [
            [
                "a7802aae309db2d6"
            ]
        ]
    },
    {
        "id": "c997880fdaf0a477",
        "type": "inject",
        "z": "db28c60b24f0347d",
        "name": "",
        "props": [
            {
                "p": "payload"
            },
            {
                "p": "topic",
                "vt": "str"
            }
        ],
        "repeat": "",
        "crontab": "",
        "once": false,
        "onceDelay": 0.1,
        "topic": "select * from user",
        "payload": "",
        "payloadType": "date",
        "x": 340,
        "y": 300,
        "wires": [
            [
                "9c085f2fd56babee"
            ]
        ]
    },
    {
        "id": "a7802aae309db2d6",
        "type": "debug",
        "z": "db28c60b24f0347d",
        "name": "",
        "active": true,
        "tosidebar": true,
        "console": false,
        "tostatus": false,
        "complete": "false",
        "statusVal": "",
        "statusType": "auto",
        "x": 850,
        "y": 280,
        "wires": []
    },
    {
        "id": "48badc299fd8bdb1",
        "type": "http in",
        "z": "df04889fc1a7f5bf",
        "name": "Request",
        "url": "/app/html",
        "method": "get",
        "upload": false,
        "swaggerDoc": "",
        "x": 140,
        "y": 160,
        "wires": [
            [
                "4256f3373e60e5aa"
            ]
        ]
    },
    {
        "id": "aa16d7c10b86258d",
        "type": "http response",
        "z": "df04889fc1a7f5bf",
        "name": "Response - HTML",
        "statusCode": "200",
        "headers": {},
        "x": 830,
        "y": 160,
        "wires": [],
        "info": "{{msg}}"
    },
    {
        "id": "8eac2f89f25bbe14",
        "type": "template",
        "z": "df04889fc1a7f5bf",
        "name": "",
        "field": "payload",
        "fieldType": "msg",
        "format": "handlebars",
        "syntax": "mustache",
        "template": "<!DOCTYPE html>\n<html>\n<head>\n<title>Payload</title>\n</head>\n<body>\n\n<h1>Payload</h1>\n<p>Name: {{req.body.name}}</p>\n<p>Surname: {{req.body.surname}}</p>\n\n</body>\n</html> \n\n",
        "output": "str",
        "x": 540,
        "y": 160,
        "wires": [
            [
                "0b9b2fa77be2135e",
                "aa16d7c10b86258d"
            ]
        ]
    },
    {
        "id": "0b9b2fa77be2135e",
        "type": "debug",
        "z": "df04889fc1a7f5bf",
        "name": "",
        "active": true,
        "tosidebar": true,
        "console": false,
        "tostatus": false,
        "complete": "payload",
        "targetType": "msg",
        "statusVal": "",
        "statusType": "auto",
        "x": 810,
        "y": 240,
        "wires": []
    },
    {
        "id": "4256f3373e60e5aa",
        "type": "function",
        "z": "df04889fc1a7f5bf",
        "name": "",
        "func": "console.log(msg.req.body)\nreturn msg;",
        "outputs": 1,
        "noerr": 0,
        "initialize": "",
        "finalize": "",
        "libs": [],
        "x": 320,
        "y": 160,
        "wires": [
            [
                "8eac2f89f25bbe14"
            ]
        ]
    },
    {
        "id": "6869d9ac91e537ad",
        "type": "http in",
        "z": "df04889fc1a7f5bf",
        "name": "Request",
        "url": "/app/",
        "method": "get",
        "upload": false,
        "swaggerDoc": "",
        "x": 140,
        "y": 440,
        "wires": [
            [
                "c849302ac69ebcee"
            ]
        ]
    },
    {
        "id": "02744ff28a6af155",
        "type": "http response",
        "z": "df04889fc1a7f5bf",
        "name": "Response",
        "statusCode": "200",
        "headers": {},
        "x": 800,
        "y": 440,
        "wires": [],
        "info": "{{msg}}"
    },
    {
        "id": "fdea7d983f99f07e",
        "type": "template",
        "z": "df04889fc1a7f5bf",
        "name": "",
        "field": "payload",
        "fieldType": "msg",
        "format": "handlebars",
        "syntax": "mustache",
        "template": "{\n    \"nome\": \"{{req.body.name}}\",\n    \"sobrenome\": \"{{req.body.surname}}\",\n    \"nomecompleto\" : \"{{req.body.name}} {{req.body.surname}}\"\n}",
        "output": "json",
        "x": 540,
        "y": 440,
        "wires": [
            [
                "7976463acd4367b6",
                "02744ff28a6af155"
            ]
        ]
    },
    {
        "id": "7976463acd4367b6",
        "type": "debug",
        "z": "df04889fc1a7f5bf",
        "name": "",
        "active": true,
        "tosidebar": true,
        "console": false,
        "tostatus": false,
        "complete": "payload",
        "targetType": "msg",
        "statusVal": "",
        "statusType": "auto",
        "x": 810,
        "y": 520,
        "wires": []
    },
    {
        "id": "c849302ac69ebcee",
        "type": "function",
        "z": "df04889fc1a7f5bf",
        "name": "",
        "func": "console.log(msg.req.body)\nreturn msg;",
        "outputs": 1,
        "noerr": 0,
        "initialize": "",
        "finalize": "",
        "libs": [],
        "x": 320,
        "y": 440,
        "wires": [
            [
                "fdea7d983f99f07e"
            ]
        ]
    },
    {
        "id": "0a73629abc36ceeb",
        "type": "http in",
        "z": "7494b7fd6eed6068",
        "name": "cookies_list",
        "url": "/cookies",
        "method": "get",
        "upload": false,
        "swaggerDoc": "",
        "x": 310,
        "y": 280,
        "wires": [
            [
                "8f5814f43b652f7c"
            ]
        ]
    },
    {
        "id": "2dafe5704e62d1a8",
        "type": "http in",
        "z": "7494b7fd6eed6068",
        "name": "cookies_add",
        "url": "/cookies/add",
        "method": "post",
        "upload": false,
        "swaggerDoc": "",
        "x": 310,
        "y": 560,
        "wires": [
            [
                "bd366eb4d0ddd8b8"
            ]
        ]
    },
    {
        "id": "072e4d491f8217a2",
        "type": "template",
        "z": "7494b7fd6eed6068",
        "name": "",
        "field": "payload",
        "fieldType": "msg",
        "format": "handlebars",
        "syntax": "mustache",
        "template": " <!DOCTYPE html>\n<html>\n<head>\n<title>Page Title</title>\n</head>\n<body>\n\n<h1>My First Heading</h1>\n\n<form action=\"http://192.168.100.15:1880/cookies/add\" method=\"POST\">\n  <label for=\"name\">First name:</label><br>\n  <input type=\"text\" id=\"name\" name=\"name\"><br>\n  <label for=\"surname\">Last name:</label><br>\n  <input type=\"text\" id=\"surname\" name=\"surname\">\n  <input type=\"submit\" value=\"Salvar\">\n</form> \n\n\n<pre>{{payload}}</pre>\n\n\n\n</body>\n</html> ",
        "output": "str",
        "x": 740,
        "y": 300,
        "wires": [
            [
                "b26b3c0ea6e467e3",
                "1f1b645c82915ae7"
            ]
        ]
    },
    {
        "id": "b26b3c0ea6e467e3",
        "type": "http response",
        "z": "7494b7fd6eed6068",
        "name": "",
        "statusCode": "",
        "headers": {},
        "x": 1030,
        "y": 440,
        "wires": []
    },
    {
        "id": "8f5814f43b652f7c",
        "type": "function",
        "z": "7494b7fd6eed6068",
        "name": "",
        "func": "console.log(msg.req.cookies)\nmsg.payload = JSON.stringify(msg.req.cookies, null, 4)\nreturn msg;",
        "outputs": 1,
        "noerr": 0,
        "initialize": "",
        "finalize": "",
        "libs": [],
        "x": 500,
        "y": 280,
        "wires": [
            [
                "072e4d491f8217a2"
            ]
        ]
    },
    {
        "id": "559a99aed710a0a6",
        "type": "change",
        "z": "7494b7fd6eed6068",
        "name": "",
        "rules": [
            {
                "t": "set",
                "p": "statusCode",
                "pt": "msg",
                "to": "302",
                "tot": "str"
            },
            {
                "t": "set",
                "p": "headers",
                "pt": "msg",
                "to": "{}",
                "tot": "json"
            },
            {
                "t": "set",
                "p": "headers.location",
                "pt": "msg",
                "to": "/cookies",
                "tot": "str"
            }
        ],
        "action": "",
        "property": "",
        "from": "",
        "to": "",
        "reg": false,
        "x": 780,
        "y": 480,
        "wires": [
            [
                "b26b3c0ea6e467e3"
            ]
        ]
    },
    {
        "id": "bd366eb4d0ddd8b8",
        "type": "function",
        "z": "7494b7fd6eed6068",
        "name": "",
        "func": "msg.cookies={}\nconsole.log(msg.req.body)\nmsg.cookies[(\"user - \" + Math.floor(Math.random()*1000))] = (msg.req.body.name + \" \" + msg.req.body.surname);\nreturn msg;",
        "outputs": 1,
        "noerr": 0,
        "initialize": "",
        "finalize": "",
        "libs": [],
        "x": 520,
        "y": 520,
        "wires": [
            [
                "559a99aed710a0a6"
            ]
        ]
    },
    {
        "id": "1f1b645c82915ae7",
        "type": "debug",
        "z": "7494b7fd6eed6068",
        "name": "",
        "active": true,
        "tosidebar": true,
        "console": false,
        "tostatus": false,
        "complete": "payload",
        "targetType": "msg",
        "statusVal": "",
        "statusType": "auto",
        "x": 990,
        "y": 220,
        "wires": []
    },
    {
        "id": "51d7271cc72b6096",
        "type": "ui_text",
        "z": "8f8a9b1e08e98a5e",
        "group": "d5228022aca24f5a",
        "order": 0,
        "width": "6",
        "height": "3",
        "name": "",
        "label": "Company",
        "format": "{{msg.payload}}",
        "layout": "row-left",
        "className": "",
        "x": 500,
        "y": 320,
        "wires": []
    },
    {
        "id": "07d92d5c2ebd01ad",
        "type": "inject",
        "z": "8f8a9b1e08e98a5e",
        "name": "",
        "props": [
            {
                "p": "payload"
            },
            {
                "p": "topic",
                "vt": "str"
            }
        ],
        "repeat": "",
        "crontab": "",
        "once": true,
        "onceDelay": 0.1,
        "topic": "",
        "payload": "SenseUp",
        "payloadType": "str",
        "x": 240,
        "y": 320,
        "wires": [
            [
                "51d7271cc72b6096"
            ]
        ]
    },
    {
        "id": "83fc16bcab815068",
        "type": "ui_text",
        "z": "8f8a9b1e08e98a5e",
        "group": "b851d7729e6b977e",
        "order": 0,
        "width": "6",
        "height": "3",
        "name": "",
        "label": "Company",
        "format": "{{msg.payload}}",
        "layout": "row-left",
        "className": "",
        "x": 500,
        "y": 380,
        "wires": []
    },
    {
        "id": "b3eb5154c4b9d6c1",
        "type": "inject",
        "z": "8f8a9b1e08e98a5e",
        "name": "",
        "props": [
            {
                "p": "payload"
            },
            {
                "p": "topic",
                "vt": "str"
            }
        ],
        "repeat": "",
        "crontab": "",
        "once": true,
        "onceDelay": 0.1,
        "topic": "",
        "payload": "SenseUp",
        "payloadType": "str",
        "x": 240,
        "y": 380,
        "wires": [
            [
                "83fc16bcab815068"
            ]
        ]
    },
    {
        "id": "a91c7abc578ad39d",
        "type": "ui_text",
        "z": "8f8a9b1e08e98a5e",
        "group": "93c89412c9e5155d",
        "order": 0,
        "width": "6",
        "height": "3",
        "name": "",
        "label": "Company",
        "format": "{{msg.payload}}",
        "layout": "row-left",
        "className": "",
        "x": 500,
        "y": 440,
        "wires": []
    },
    {
        "id": "cd106c545dd82e26",
        "type": "inject",
        "z": "8f8a9b1e08e98a5e",
        "name": "",
        "props": [
            {
                "p": "payload"
            },
            {
                "p": "topic",
                "vt": "str"
            }
        ],
        "repeat": "",
        "crontab": "",
        "once": true,
        "onceDelay": 0.1,
        "topic": "",
        "payload": "SenseUp",
        "payloadType": "str",
        "x": 240,
        "y": 440,
        "wires": [
            [
                "a91c7abc578ad39d"
            ]
        ]
    },
    {
        "id": "70d6be4ea73fefdc",
        "type": "ui_text",
        "z": "8f8a9b1e08e98a5e",
        "group": "bc38ae6d6de7f436",
        "order": 0,
        "width": "6",
        "height": "3",
        "name": "",
        "label": "Company",
        "format": "{{msg.payload}}",
        "layout": "row-left",
        "className": "",
        "x": 500,
        "y": 500,
        "wires": []
    },
    {
        "id": "89d291bd01d78f86",
        "type": "inject",
        "z": "8f8a9b1e08e98a5e",
        "name": "",
        "props": [
            {
                "p": "payload"
            },
            {
                "p": "topic",
                "vt": "str"
            }
        ],
        "repeat": "",
        "crontab": "",
        "once": true,
        "onceDelay": 0.1,
        "topic": "",
        "payload": "SenseUp",
        "payloadType": "str",
        "x": 240,
        "y": 500,
        "wires": [
            [
                "70d6be4ea73fefdc"
            ]
        ]
    },
    {
        "id": "fd58f0328b02433c",
        "type": "ui_text",
        "z": "8f8a9b1e08e98a5e",
        "group": "10b6558722b71c05",
        "order": 0,
        "width": "6",
        "height": "3",
        "name": "",
        "label": "Company",
        "format": "{{msg.payload}}",
        "layout": "row-left",
        "className": "",
        "x": 500,
        "y": 560,
        "wires": []
    },
    {
        "id": "986f975c0d81b4ae",
        "type": "inject",
        "z": "8f8a9b1e08e98a5e",
        "name": "",
        "props": [
            {
                "p": "payload"
            },
            {
                "p": "topic",
                "vt": "str"
            }
        ],
        "repeat": "",
        "crontab": "",
        "once": true,
        "onceDelay": 0.1,
        "topic": "",
        "payload": "SenseUp",
        "payloadType": "str",
        "x": 240,
        "y": 560,
        "wires": [
            [
                "fd58f0328b02433c"
            ]
        ]
    },
    {
        "id": "cf3213093429b8a2",
        "type": "ui_form",
        "z": "9c9e73a547d7c5a6",
        "name": "",
        "label": "Create User Form",
        "group": "a7dedd3af27e1827",
        "order": 1,
        "width": 0,
        "height": 0,
        "options": [
            {
                "label": "Nome",
                "value": "username",
                "type": "text",
                "required": true,
                "rows": null
            },
            {
                "label": "E-mail",
                "value": "email",
                "type": "email",
                "required": true,
                "rows": null
            },
            {
                "label": "Password",
                "value": "password",
                "type": "password",
                "required": true,
                "rows": null
            }
        ],
        "formValue": {
            "username": "",
            "email": "",
            "password": ""
        },
        "payload": "",
        "submit": "submit",
        "cancel": "cancel",
        "topic": "topic",
        "topicType": "msg",
        "splitLayout": false,
        "className": "",
        "x": 330,
        "y": 60,
        "wires": [
            []
        ]
    },
    {
        "id": "c542212e46f51ee1",
        "type": "ui_ui_control",
        "z": "9c9e73a547d7c5a6",
        "name": "",
        "events": "all",
        "x": 360,
        "y": 620,
        "wires": [
            []
        ]
    },
    {
        "id": "db75aca3a49b3c39",
        "type": "inject",
        "z": "9c9e73a547d7c5a6",
        "name": "",
        "props": [
            {
                "p": "payload"
            },
            {
                "p": "topic",
                "v": "{\"group\":{\"hide\":[\"user_bla\"]}}",
                "vt": "json"
            }
        ],
        "repeat": "",
        "crontab": "",
        "once": false,
        "onceDelay": "5",
        "topic": "",
        "payload": "{\"group\":{\"hide\":[\"user_bla\"]}}",
        "payloadType": "json",
        "x": 130,
        "y": 620,
        "wires": [
            [
                "c542212e46f51ee1",
                "1b87a2a918696846"
            ]
        ]
    },
    {
        "id": "1b87a2a918696846",
        "type": "debug",
        "z": "9c9e73a547d7c5a6",
        "name": "",
        "active": true,
        "tosidebar": true,
        "console": false,
        "tostatus": false,
        "complete": "false",
        "statusVal": "",
        "statusType": "auto",
        "x": 370,
        "y": 680,
        "wires": []
    },
    {
        "id": "2d103d776a820769",
        "type": "ui_date_picker",
        "z": "9c9e73a547d7c5a6",
        "name": "",
        "label": "date",
        "group": "9b4d277b8d331cfd",
        "order": 0,
        "width": 0,
        "height": 0,
        "passthru": true,
        "topic": "topic",
        "topicType": "msg",
        "className": "",
        "x": 110,
        "y": 680,
        "wires": [
            []
        ]
    },
    {
        "id": "3fc60efc575c3303",
        "type": "comment",
        "z": "9c9e73a547d7c5a6",
        "name": "CREATE",
        "info": "",
        "x": 120,
        "y": 60,
        "wires": []
    },
    {
        "id": "d7df7d386ef00596",
        "type": "comment",
        "z": "9c9e73a547d7c5a6",
        "name": "BLA Example",
        "info": "",
        "x": 130,
        "y": 560,
        "wires": []
    },
    {
        "id": "508daf1cc2db3f54",
        "type": "comment",
        "z": "9c9e73a547d7c5a6",
        "name": "LIST ALL",
        "info": "",
        "x": 120,
        "y": 160,
        "wires": []
    },
    {
        "id": "6dcbf757e7085e7c",
        "type": "mysql",
        "z": "9c9e73a547d7c5a6",
        "mydb": "9475ea396ff0883e",
        "name": "",
        "x": 320,
        "y": 240,
        "wires": [
            [
                "ba9666564ea2360c"
            ]
        ]
    },
    {
        "id": "e94c399cf9633cb2",
        "type": "ui_button",
        "z": "9c9e73a547d7c5a6",
        "name": "",
        "group": "115cd9af931cc2ab",
        "order": 1,
        "width": "30",
        "height": "1",
        "passthru": false,
        "label": "Refresh",
        "tooltip": "",
        "color": "",
        "bgcolor": "",
        "className": "",
        "icon": "",
        "payload": "",
        "payloadType": "str",
        "topic": "select * from users",
        "topicType": "str",
        "x": 140,
        "y": 240,
        "wires": [
            [
                "6dcbf757e7085e7c"
            ]
        ]
    },
    {
        "id": "22a19e80b7534de7",
        "type": "ui_template",
        "z": "9c9e73a547d7c5a6",
        "group": "115cd9af931cc2ab",
        "name": "",
        "order": 2,
        "width": "30",
        "height": "17",
        "format": "<div ng-bind-html=\"msg.payload\"></div>",
        "storeOutMessages": true,
        "fwdInMessages": true,
        "resendOnRefresh": true,
        "templateScope": "local",
        "className": "",
        "x": 740,
        "y": 240,
        "wires": [
            []
        ]
    },
    {
        "id": "a3fc99bb934aebbc",
        "type": "debug",
        "z": "9c9e73a547d7c5a6",
        "name": "",
        "active": true,
        "tosidebar": true,
        "console": false,
        "tostatus": false,
        "complete": "false",
        "statusVal": "",
        "statusType": "auto",
        "x": 730,
        "y": 320,
        "wires": []
    },
    {
        "id": "ba9666564ea2360c",
        "type": "function",
        "z": "9c9e73a547d7c5a6",
        "name": "",
        "func": "let html = \"<table style='width:100%'>\"\nhtml += \"<tr>\"\n    + \"<th>Id</th>\"\n    + \"<th>Name</th>\"\n    + \"<th>Surname</th>\"\n  +\"</tr>\"\n\nfor (let registre of msg.payload) {\n    let line = \"<tr>\"\n    + `<td>${registre.id}</td>`\n    + `<td>${registre.firstName}</td>`\n    + `<td>${registre.lastName}</td>`\n    + \"</tr>\"\n    \n    html += line\n    \n}\n\nhtml += \"</table>\"\n\nmsg.payloadByDB = msg.payload\nmsg.payload = html\n\nreturn msg;",
        "outputs": 1,
        "noerr": 0,
        "initialize": "",
        "finalize": "",
        "libs": [],
        "x": 500,
        "y": 240,
        "wires": [
            [
                "22a19e80b7534de7",
                "a3fc99bb934aebbc"
            ]
        ]
    },
    {
        "id": "78d0144a36ab5317",
        "type": "ui_text",
        "z": "6ad85c2db8dc0563",
        "group": "e69378ba52b278df",
        "order": 1,
        "width": 0,
        "height": 0,
        "name": "",
        "label": "Curso Clicado",
        "format": "{{msg.payload}}",
        "layout": "row-spread",
        "className": "",
        "x": 680,
        "y": 320,
        "wires": []
    },
    {
        "id": "7c3dd66267e4adcf",
        "type": "ui_button",
        "z": "6ad85c2db8dc0563",
        "name": "",
        "group": "e69378ba52b278df",
        "order": 3,
        "width": 0,
        "height": 0,
        "passthru": false,
        "label": "Node Red",
        "tooltip": "",
        "color": "",
        "bgcolor": "",
        "className": "",
        "icon": "",
        "payload": "NodeRed",
        "payloadType": "str",
        "topic": "topic",
        "topicType": "msg",
        "x": 440,
        "y": 240,
        "wires": [
            [
                "78d0144a36ab5317"
            ]
        ]
    },
    {
        "id": "386b3e2cb6c185b9",
        "type": "ui_button",
        "z": "6ad85c2db8dc0563",
        "name": "",
        "group": "e69378ba52b278df",
        "order": 4,
        "width": 0,
        "height": 0,
        "passthru": false,
        "label": "JavaScript",
        "tooltip": "",
        "color": "",
        "bgcolor": "",
        "className": "",
        "icon": "",
        "payload": "JavaScript",
        "payloadType": "str",
        "topic": "topic",
        "topicType": "msg",
        "x": 450,
        "y": 340,
        "wires": [
            [
                "78d0144a36ab5317"
            ]
        ]
    },
    {
        "id": "7837ee69a975cad2",
        "type": "ui_text_input",
        "z": "6ad85c2db8dc0563",
        "name": "",
        "label": "Digite um curso",
        "tooltip": "Digite um curso",
        "group": "e69378ba52b278df",
        "order": 2,
        "width": 0,
        "height": 0,
        "passthru": true,
        "mode": "text",
        "delay": "0",
        "topic": "topic",
        "sendOnBlur": true,
        "className": "",
        "topicType": "msg",
        "x": 460,
        "y": 480,
        "wires": [
            [
                "78d0144a36ab5317"
            ]
        ]
    },
    {
        "id": "7f352b21611f6a81",
        "type": "ui_button",
        "z": "6ad85c2db8dc0563",
        "name": "",
        "group": "e69378ba52b278df",
        "order": 5,
        "width": 0,
        "height": 0,
        "passthru": false,
        "label": "Mudar Curso",
        "tooltip": "",
        "color": "",
        "bgcolor": "",
        "className": "",
        "icon": "",
        "payload": "payload",
        "payloadType": "flow",
        "topic": "topic",
        "topicType": "msg",
        "x": 250,
        "y": 480,
        "wires": [
            [
                "7837ee69a975cad2",
                "76f459fa9467af1d"
            ]
        ]
    },
    {
        "id": "76f459fa9467af1d",
        "type": "debug",
        "z": "6ad85c2db8dc0563",
        "name": "",
        "active": true,
        "tosidebar": true,
        "console": false,
        "tostatus": false,
        "complete": "false",
        "statusVal": "",
        "statusType": "auto",
        "x": 430,
        "y": 620,
        "wires": []
    }
]